{
  "type": "html",
  "template": {
    "dependent": [{
      "name": "lodash",
      "url": "http://10.124.160.2:806/widget/cm/static/js/lodash-4.17.21.min.js"
    }, {
      "name": "moment",
      "url": "http://10.124.160.2:806/widget/cm/static/js/moment.min.js"
    }],

    "templateHtml": "<div class=\"my-app\"> <transition name=\"collapse\"> <div class=\"sidebar\" v-show=\"!is_hide_sidebar\"> <div class=\"inner-sidebar\"> <div class=\"caption\">Filters</div> <div class=\"filter\"> <img class=\"filter-icon\" :src=\"assets_path + 'static/media/calendar.svg'\"> <div class=\"filter-form\"> <div class=\"filter-label\"> <div class=\"filter-label-text\">Period</div> <img class=\"filter-label-arrow\" :src=\"assets_path + 'static/media/arrow_down_white.svg'\"/> </div> <div class=\"filter-input\"> <el-date-picker v-model=\"filter.time_id\" type=\"month\" range-separator=\"~\" format=\"yyyy-MM\" value-format=\"yyyyMM\"> </el-date-picker> </div> </div> </div> <div class=\"filter\"> <img class=\"filter-icon\" :src=\"assets_path + 'static/media/dimension.svg'\"> <div class=\"filter-form\"> <div class=\"filter-label\"> <div class=\"filter-label-text\">PBU</div> <img class=\"filter-label-arrow\" :src=\"assets_path + 'static/media/arrow_down_white.svg'\"/> </div> <div class=\"filter-input\"> <el-select v-model=\"filter.pbu_id\" default-first-option=\"true\" popper-append-to-body=\"false\" placeholder=\"Select\"> <el-option v-for=\"p in pbu_table_distinct\" :key=\"p.pbu_id\" :label=\"p.pbu_name\" :value=\"p.pbu_id\"> </el-option> </el-select> </div> </div> </div> <div class=\"filter\"> <img class=\"filter-icon\" :src=\"assets_path + 'static/media/location.svg'\"> <div class=\"filter-form\"> <div class=\"filter-label\"> <div class=\"filter-label-text\">SubPBU</div> <img class=\"filter-label-arrow\" :src=\"assets_path + 'static/media/arrow_down_white.svg'\"/> </div> <div class=\"filter-input\"> <el-select v-model=\"filter.subpbu_id\" default-first-option=\"true\" popper-append-to-body=\"false\" placeholder=\"Select\"> <el-option v-for=\"p in sub_pbu_table_distinct\" :key=\"p.subpbu_id\" :label=\"p.subpbu_name\" :value=\"p.subpbu_id\"> </el-option> </el-select> </div> </div> </div> <div class=\"filter\"> <img class=\"filter-icon\" :src=\"assets_path + 'static/media/tasks.svg'\"> <div class=\"filter-form\"> <div class=\"filter-label\"> <div class=\"filter-label-text\">Actual-Version</div> <img class=\"filter-label-arrow\" :src=\"assets_path + 'static/media/arrow_down_white.svg'\"/> </div> <div class=\"filter-input\"> <el-select v-model=\"filter.actual_version_id\" default-first-option=\"true\" popper-append-to-body=\"false\" placeholder=\"Select\"> <el-option v-for=\"v in actual_version_table\" :key=\"v.version_id\" :label=\"'Current Month: ' + v.version_name\" :value=\"v.version_id\"> </el-option> </el-select> </div> </div> </div> <!-- search/clear--> <div class=\"filter action\"> <div class=\"filter-icon\"></div> <div class=\"filter-form\"> <button class=\"button-search\" :disabled=\"!init || disableSearch\" @click=\"searchHandler\">Search</button> <!--<button class=\"button-clear\">Clear</button>--> </div> </div> </div> </div> </transition> <div class=\"content\"> <div class=\"header\"> <img class=\"collapse-icon\" :src=\"sidebarToggleIconSrc(is_hide_sidebar)\" @click=\"toggleSidebar\"> <div class=\"caption\"> <div>{{caption}}</div> </div> <div class=\"action\" v-if=\"profile\"> <button v-if=\"is_cm_admin\" :disabled=\"!actual_history || actual_history.status !== 3\" @click=\"unlockHandler\">Unlock </button> <button :disabled=\"!actual_history || actual_history.status > 1\" @click=\"openImportDialog\">Import</button> <button :disabled=\"!actual_history || [1, 0].indexOf(actual_history.status) < 0\" @click=\"lockHandler\">Lock </button> </div> </div> <div class=\"main\"> <div class=\"box\"> <transition name=\"fade\"> <table v-if=\"init && actual_history\" class=\"pnl-actual-table\"> <thead> <tr> <th class=\"item-name text-align-left indent-1\">Item</th> <th v-for=\"product in products\"> <div class=\"product\">{{product.name}}</div> </th> </tr> </thead> <tbody name=\"fade\" is=\"transition-group\"> <template v-for=\"(row, index) in history_items\"> <template v-if=\"row.item_type === 'C'\"> <tr v-if=\"index > 0 && history_items[index - 1].item_type !== 'C'\" :key=\"'spacing-' + index\" v-show=\"is_open_group[row.collapse_index -1]\" class=\"row-spacing\"> <td :colspan=\"cellAmount\"></td> </tr> <tr :class=\"tbodyRowClass(row)\" :key=\"row.line_item\" @dblclick=\"toggleItemGroup(row.collapse_index)\"> <td> <img class=\"collapse-icon\" :class=\"{'rotated-270': !is_open_group[row.collapse_index]}\" :src=\"assets_path + 'static/media/arrow_down_black.svg'\" @click=\"toggleItemGroup(row.collapse_index)\"/> <span v-html=\"row.item_name\"></span> </td> <td v-for=\"n in cellAmount - 1\"></td> </tr> </template> <tr v-else v-show=\"is_open_group[row.collapse_index]\" :class=\"tbodyRowClass(row)\" :key=\"row.line_item\"> <td class=\"item-name table-separator\" :class=\"'indent-' + row.item_level\"> <span v-html=\"row.item_name\"></span> </td> <td v-for=\"product in products\"> <div class=\"product\">{{toFixedFloatCurrency(row.products[product.key], 1)}}</div> </td> </tr> </template> </tbody> </table> </transition> </div> </div> </div> <!-- element-ui dialog --> <el-dialog :visible=\"is_show_import\" :modal-append-to-body=\"false\" :close-on-click-modal=\"false\" :close-on-press-escape=\"false\" custom-class=\"import-dialog\" :show-close=\"false\" width=\"480px\" center @closed=\"resetImportStep\"> <div slot=\"title\">Import</div> <div v-if=\"criteria\" class=\"import-body upload-demo\"> <transition name=\"import-slide-previous\"> <div v-show=\"import_step === 1\"> <img class=\"import_img\" :src=\"assets_path + 'static/media/logo_import_step_' + import_step + '.svg'\"/> <input type=\"file\" v-if=\"import_step === 1\" v-show=\"false\" ref=\"file_input\" @change=\"getUploadFile\" accept=\".xls, .xlsx\"> <div> <button @click=\"openUploadDialog\" class=\"import_select_button\">Select File</button> </div> <div> <a :href=\"assets_path + 'static/template/pnl_actual_input_template.xlsx'\" class=\"import_template_download\">Template download</a> </div> </div> </transition> <transition name=\"import-slide-next\"> <div v-show=\"import_step === 2\"> <img class=\"import_img\" :src=\"assets_path + 'static/media/logo_import_step_' + import_step + '.svg'\"/> <div>讀取文件中...<i class=\"el-icon-loading\"></i></div> </div> </transition> <transition name=\"import-slide-next\"> <div v-show=\"import_step === 3\"> <img class=\"import_img\" :src=\"assets_path + 'static/media/logo_import_step_' + import_step + '.svg'\"/> <div class=\"import_success_w\"> {{import_message}} </div> </div> </transition> <transition name=\"import-slide-next\"> <div v-show=\"import_step === 4\"> <img class=\"import_img\" :src=\"assets_path + 'static/media/logo_import_step_' + import_step + '.svg'\"/> <div class=\"import_fail_w\"> {{import_message}} </div> </div> </transition> </div> <div slot=\"footer\" class=\"dialog-footer\"> <button class=\"previous\" @click=\"resetImportStep\">Previous</button> <div class=\"step-progress\"> <span class=\"point\" :class=\"progressStepPointCss(1)\"></span> <span class=\"connect\" :class=\"progressStepConnectCss(2)\"></span> <span class=\"point\" :class=\"progressStepPointCss(2)\"></span> <span class=\"connect\" :class=\"progressStepConnectCss(3)\"></span> <span class=\"point\" :class=\"progressStepPointCss(3)\"></span> </div> <button class=\"close\" @click=\"is_show_import = false\">Close</button> </div> </el-dialog></div>",

    "templateCss": ".my-app{display:flex;width:100%;height:calc(100% - 10px);padding-top:10px;font-family:Arial,Arial-BoldMT;background-color:#fff}.sidebar{min-width:248px;max-width:248px;background-color:#00a9f4;border-radius:0 33px 0 0;color:#fff;overflow-x:hidden;overflow-y:scroll}.sidebar>.inner-sidebar{margin:0 20px 0 23px;padding-top:17px}.sidebar>.inner-sidebar>.caption{font-size:18px;font-weight:normal;line-height:28px;margin-bottom:15px}.sidebar>.inner-sidebar>.filter{width:100%;margin-bottom:18px;display:flex;justify-content:space-between}.sidebar>.inner-sidebar>.filter>.filter-icon{width:35px;height:35px;vertical-align:top;display:inline-block}.sidebar>.inner-sidebar>.filter>.filter-form{width:calc(248px - 20px - 23px - 35px - 15px);display:inline-block}.sidebar>.inner-sidebar>.filter>.filter-form>.filter-label{display:flex;justify-content:space-between;line-height:25px;margin-bottom:10px}.sidebar>.inner-sidebar>.filter>.filter-form>.filter-label>.filter-label-text{display:inline-block;font-size:13px;font-weight:normal;letter-spacing:1px;flex-grow:1}.sidebar>.inner-sidebar>.filter>.filter-form>.filter-label>.filter-label-arrow{width:13px}.sidebar>.inner-sidebar>.filter>.filter-form>.filter-input{padding:0 10px;border-radius:5px;background-color:#fff;display:flex}.sidebar>.inner-sidebar>.filter>.filter-form>.filter-input>input{border:0;width:100%;height:30px;padding:0;outline:0;font-size:14px;color:#606266}.sidebar>.inner-sidebar>.action>.filter-form{display:inline-flex;justify-content:space-between}.sidebar>.inner-sidebar>.action>.filter-form button{width:65px;height:28px;border:0;border-radius:4px;color:#fff;overflow:hidden;padding:0;outline:0}.sidebar>.inner-sidebar>.action>.filter-form button[disabled]{color:#8c939d;border-color:#8c939d}.sidebar .button-search{background:#005fb2}.sidebar .button-clear{background:#c9c7c5}.sidebar .el-input__inner{padding:0 4px;width:100%;border:0;border-radius:5px;height:30px;justify-content:center;text-align:center}.sidebar .el-button{padding:0 4px;width:100%;border:0;border-radius:5px;height:30px;justify-content:center;text-align:center}.sidebar .el-date-editor>.el-range-input{width:43%}.sidebar .filter-checkbox{padding:3px 0 6px 12px;border-left:3px solid #f5f7fa}.sidebar .filter-checkbox .el-checkbox{font-size:20px}.sidebar .filter-checkbox .el-checkbox__label{font-size:15px;color:#fff!important}.sidebar .el-icon-arrow-up:before{content:''}.sidebar .filter-tree .el-input__inner{cursor:pointer!important}.sidebar .filter-tree .el-select .el-tag{height:22px}.sidebar .filter-tree .el-select__tags{max-width:130px!important}.sidebar .filter-tree .el-select .el-select__tags-text{display:inline-block;max-width:55px;overflow:hidden;text-overflow:ellipsis;white-space:nowrap;color:#5f6266}.sidebar .filter-tree .el-select .el-tag__close.el-icon-close{display:none}.sidebar .el-date-editor i{display:none}.content{flex:1;min-width:350px;display:flex;flex-direction:column}.content .header{line-height:35px;background-color:#fff;margin-left:25px;margin-right:20px}.content>.header>.collapse-icon{vertical-align:middle;max-height:22px;max-width:22px;display:inline-block}.content>.header>.caption{display:inline-block;font-size:20px;font-weight:bold;color:#000;vertical-align:middle}.content .action{float:right;display:block;bottom:1px;right:40px}.content>.header>.action button{width:60px;height:28px;border-radius:4px;color:#0070d2;background-color:#fff;border:1px #0070d2 solid;outline:0}.content>.header>.action>button[disabled]{color:#8c939d;border-color:#8c939d}.content>.header>.action>button:enabled{background:rgba(255,255,255,0)}.content>.header>.action>button.active,.content>.header>.action>button:hover:not([disabled]){background-color:#005fb2;color:#fff}.content>.main{height:100%;overflow:scroll;margin-left:18px}.content>.main>.box{display:inline-block;margin:0 18px 18px 0}.content>.main::-webkit-scrollbar{width:8px;height:8px}.content>.main::-webkit-scrollbar-track{border-radius:30px}.content>.main::-webkit-scrollbar-thumb{border-radius:30px;background-color:#fff}.content>.main:hover::-webkit-scrollbar-thumb{border-radius:30px;background-color:#bcbec2}.tree-picker-popper{padding:17px 10px 15px 20px}.tree-picker-container{display:flex;max-height:80vh;overflow:auto}.tree-picker-container .tree-picker{width:45%}.tree-picker-container .pickup-pool{flex:1;padding-left:10px;display:inline}.tree-picker-container .pickup-item{margin:3px}.pnl-actual-table{white-space:nowrap;border-collapse:separate;border-spacing:0;font-size:14px;word-break:keep-all}.pnl-actual-table .product{background:#fff;border-radius:4px;border:1px solid #dddbda;height:21px;line-height:21px;color:initial;padding:3px 7px 0 11px}.pnl-actual-table tr{height:34px;background-color:#fff}.pnl-actual-table th{background-color:#00adef;color:#fff;font-weight:500;padding:0 5px;min-width:90px;border-right:#fff 1px solid;border-top:#fff 1px solid;position:sticky;top:0;z-index:1950}.pnl-actual-table thead tr:first-child th:first-child{left:0;z-index:1990}.pnl-actual-table th.item-name{min-width:405px;//370}.pnl-actual-table th:last-child,.pnl-actual-table td:last-child{border-right:0}.pnl-actual-table td{text-align:right;padding:0 7px;border-right:#dddbda 1px solid;border-bottom:#dddbda 1px solid}.pnl-actual-table td:first-child{padding-top:4px;border-right:double 3px #cccbcb;text-align:left;position:sticky;left:0;z-index:1940}.pnl-actual-table tbody tr:not(.category):nth-child(odd) td:not(:first-child){background-color:rgba(189,230,247,0.3)}.pnl-actual-table tbody tr:not(.category):nth-child(even) td:not(:first-child){background-color:rgba(189,230,247,0.6)}.pnl-actual-table .category{font-weight:bold;font-size:16px;background-color:#f2f2f2}.pnl-actual-table .category td{background-color:#f2f2f2;border-width:0;text-align:left;vertical-align:center;padding-left:15px}.pnl-actual-table .category .collapse-icon{width:12px;height:12px;margin-right:8px;display:inline}.pnl-actual-table .row-spacing{height:20px}.pnl-actual-table .row-spacing td{border:0}.pnl-actual-table .mark{background-color:#c9f0ff}.pnl-actual-table .emphasize{font-weight:bold;font-size:16px}.pnl-actual-table .required .item-name::after{content:'*';color:red;margin-left:5px;font-size:18px}.pnl-actual-table .disabled div.product{background-color:#dddbda}.item-name small{font-size:13px;font-weight:normal}.import-dialog .el-dialog__header{box-shadow:0 2px 0 0 #dddbda}.import-dialog .import-body{height:280px;word-break:break-word;overflow:hidden;text-align:center}.import-dialog .el-dialog__footer{padding:5px 20px;background:#f3f2f2;box-shadow:0 -2px 0 0 #dddbda}.import-dialog .dialog-footer{height:35px;display:flex;justify-content:space-between;align-items:center}.import-dialog .dialog-footer button{width:65px;height:28px;border-radius:4px;overflow:hidden;padding:0;outline:0}.import-dialog .dialog-footer button.previous{background:#fff;color:#0070d2;border:1px #dddbda solid}.import-dialog .dialog-footer button.close{background:#0070d2;color:#fff;border:1px #0070d2 solid}.import-dialog .dialog-footer .step-progress{display:inline-flex;align-items:center;flex:1;padding:0 25px}.import-dialog .dialog-footer .step-progress span{display:inline-block}.import-dialog .dialog-footer .step-progress span.point{width:8px;height:8px;border-radius:50%}.import-dialog .dialog-footer .step-progress span.point.done{background:#5eb4ff;border:3px #fff solid}.import-dialog .dialog-footer .step-progress span.point.ongoing{background:#fff;border:4px #1589ee solid}.import-dialog .dialog-footer .step-progress span.point.pending{background:#dddbda;border:4px #fff solid}.import-dialog .dialog-footer .step-progress span.connect{flex:1}.import-dialog .dialog-footer .step-progress span.connect.done{flex:1;height:1px;background:#5eb4ff}.import-dialog .dialog-footer .step-progress span.connect.pending{flex:1;height:1px;background:#dddbda}.import_success_w{color:#04844b}.import_fail_w{color:#bc3732}.import_select_button{margin-bottom:3%;padding:1% 5% 1% 5%;border-radius:20px;background-color:#0070d2;color:#fff;border:0;height:28px}.import_template_download{color:#0070d2}.import_img{margin-top:30px;margin-bottom:20px}.import-slide-next-enter-active{transition:all .1s linear}.import-slide-next-enter,.slide-next-leave-to{transform:translateX(250px)}.import-slide-previous-enter-active{transition:all .1s linear}.import-slide-previous-enter,.import-slide-previous-leave-to{transform:translateX(-250px)}button[disabled]{cursor:not-allowed}.indent-0{padding-left:18px!important}.indent-1{padding-left:38px!important}.indent-2{padding-left:63px!important}.indent-3{padding-left:93px!important}.sign{font-size:25px;float:left;line-height:14px}.alert{color:#ff4f4f}.warning{color:#ffd243}.success,.deuce{color:#abdb77}.rotated-270{transform:rotate(270deg)}.float-right{float:right}.float-left{float:left}.text-align-left{text-align:left!important}.outline-none{outline:0}.display-none{display:none}.font-bold{font-weight:bold}.font-bolder{font-weight:bolder}.prefix-plus::before{content:'+'}.postfix-percent::after{content:'%'}.tooltip{font-family:Arial,Arial-BoldMT;font-size:14px}.fade-enter-active{transition:all .2s linear}.fade-leave-active{transition:all .2s linear}.fade-enter,.fade-leave-to{opacity:0}.collapse-enter-active{transition:all .2s ease-in-out}.collapse-leave-active{transition:all .2s ease-in-out}.collapse-enter,.collapse-leave-to{width:0;min-width:0;max-width:0}.cell-slide-leave{transition:opacity .1s;opacity:0}.cell-tail-slide-leave{animation-name:slide-leave;animation-fill-mode:forwards;animation-duration:.3s}.cell-slide-enter{display:table-cell!important;opacity:0;animation-name:cell-slide-enter-frame;animation-fill-mode:forwards;animation-duration:.3s}.cell-tail-slide-enter{animation-name:slide-enter;animation-fill-mode:forwards;animation-duration:.2s}@keyframes cell-slide-leave-frame{from{opacity:1}to{opacity:0}}@keyframes cell-slide-enter-frame{from{opacity:0}to{opacity:1}}",

    "controllerScript": "var _promisify=function(_function,middleware){var _middleware=middleware||function(config){return config};return function(config,callback){return new Promise(function(resolve,reject){config=_middleware(config);_function(config,function(data){try{if(data.error){throw{code:data.error.code,message:`Remote Service Error[${_function.name}]:${data.error.msg}`}}else if(data instanceof Error){console.error(data);throw{code:-1,message:`Remote Service Error[${_function.name}]:${data.message}.Please check your network or contact developer.`}}callback&&callback(data);resolve(data)}catch(e){callback&&callback(null,e);reject(e)}})})}};self.toFixedFloatCurrency=function(value,fix){return isNaN(value)?value:Number(value).toLocaleString(undefined,{minimumFractionDigits:fix,maximumFractionDigits:fix})};self.toggleItemGroup=function(collapse_index){self.ctx.self.$set(self.data.is_open_group,collapse_index,!self.data.is_open_group[collapse_index])};self.toggleSidebar=function(){self.data.is_hide_sidebar=!self.data.is_hide_sidebar};self.tbodyRowClass=function(item){var item_type=item.item_type;var is_required=item.is_required;var clazz=[];return item_type.split('').reduce(function(clazz,type){(is_required==='Y')&&clazz.push('required');(!is_required)&&clazz.push('disabled');switch(type){case'C':clazz.push('category');break;case'E':clazz.push('emphasize');break;case'M':clazz.push('mark');break}return clazz},clazz)};self.progressStepPointCss=function(myStep){return{done:self.data.progress_step>myStep,ongoing:self.data.progress_step===myStep,pending:self.data.progress_step<myStep}};self.progressStepConnectCss=function(myStep){return{done:self.data.progress_step>=myStep,pending:self.data.progress_step<myStep}};self.sidebarToggleIconSrc=function(isHideSidebar){var img_name=isHideSidebar?'sidebar-close.svg':'sidebar-open.svg';return self.data.assets_path+'static/media/'+img_name};self.contentDataPreprocess=function(result){var collapse_count=0;var current_collapse_index=-1;result.status=_.isEmpty(result.status)?0:parseInt(result.status);result.items.forEach(function(item){if(item.item_type==='C'){collapse_count+=1;item.collapse_index=++current_collapse_index}else{item.collapse_index=current_collapse_index}});self.data.criteria={time_id:result.time_id,pbu_id:result.pbu_id,subpbu_id:result.subpbu_id,actual_version_id:result.actual_version_id};self.data.actual_history=result;self.data.products=(result.status===0)?Array(10).fill({}):result.products;self.data.history_items=result.items;self.data.is_open_group=Array(collapse_count).fill(true);self.data.caption=_.find(self.data.pbu_table_raw,{subpbu_id:result.subpbu_id}).subpbu_name+' '+moment(result.time_id,'YYYYMM').format('MMM YYYY')+' P&L Input'};self.searchHandler=function(){self.getActualExpense(self.data.filter)};self.getActualExpense=function(criteria){var params=JSON.parse(JSON.stringify(criteria));self.data.actual_history=null;return self.ctx.executeDataSources({label:'actual_application_history',body:params}).then(function(result){self.contentDataPreprocess(result);return result}).catch(function(e){self.ctx.self.$message({message:'Something wrong.',type:'error'})})};self.lockHandler=function(){var params=JSON.parse(JSON.stringify(self.data.criteria));self.ctx.executeDataSources({label:'actual_publish',body:params}).then(function(response){return self.getActualExpense(self.data.criteria)}).then(function(){self.ctx.self.$message({message:'Lock successfully.',type:'success'})}).catch(function(e){self.ctx.self.$message({message:'Lock failed.',type:'error'})})};self.unlockHandler=function(){var params=JSON.parse(JSON.stringify(self.data.criteria));self.ctx.executeDataSources({label:'actual_recall',body:params}).then(function(response){return self.getActualExpense(self.data.criteria)}).then(function(){self.ctx.self.$message({message:'Unlock successfully.',type:'success'})}).catch(function(e){self.ctx.self.$message({message:'Unlock failed.',type:'error'})})};self.resetImportStep=function(){self.data.import_step=1;self.data.import_message=\"\"};self.interruptImportStep=function(message){self.data.import_step=4;self.data.import_message=message};self.openImportDialog=function(){self.data.is_show_import=true};self.validateImportCriteria=function(sheet){var time_id=sheet[0][1].toString().trim();var pbu_name=sheet[1][1].trim();var subpbu_name=sheet[2][1].trim();var version_name=sheet[3][1].toString().trim();var template_pbu=_.find(self.data.pbu_table_raw,{pbu_id:self.data.criteria.pbu_id,subpbu_id:self.data.criteria.subpbu_id});var template_version=self.data.actual_version_table.find(function(version){return version.version_id===self.data.criteria.actual_version_id});return(self.data.criteria.time_id.toString()===time_id)&&(template_pbu.pbu_name===pbu_name)&&(template_pbu.subpbu_name===subpbu_name)&&(template_version.version_name.toString()===version_name)};self.getUploadFile=function(e){self.data.import_step=2;var files=e.target.files;self.ctx.file.parseToJson(files[0]).then(function(val){var sheets=val.results;var key=Object.keys(sheets).find(function(key){return key.trim()==='PBU P&L Input'});var sheet=sheets[key];if(!sheet)throw'No sheet available.';if(!self.validateImportCriteria(sheet)){throw'Please check YearMonth, PBU, SubPBU and Version are match to your target.';}var valid_product_index=[];var products=_.map(sheet[4].slice(1,11),_.toString).filter(function(product,index){var valid=!_.isEmpty(product);valid&&valid_product_index.push(index);return valid});var product_count=products.length;if(product_count===0){throw'At least one product required.';}var items=self.data.history_items.filter(function(item){return!!item.is_required}).map(function(item){var is_required=('Y'===item.is_required);var sheet_row=sheet[(item.row-1)];if(is_required&&!sheet_row)throw'Item(:'+item.item_name+') is not exist.';return{line_item:item.line_item,products:products.map(function(product,index){var data_index=valid_product_index[index];var value=sheet_row[(item.col-1+data_index)];var log={item:item.item_name,product:product,value:value};if(isNaN(value)){throw'Unsupported data format('+JSON.stringify(log)+').';}else if('Y'===item.is_required&&value.length<=0){throw'Please fill in necessary field('+JSON.stringify(log)+').';}return{product_name:product,value:value}})}});var foreign_data=JSON.parse(window.foreigndata);var payload=Object.assign({products:products,items:items,user_id:foreign_data.usercode},self.data.criteria);self.storeActualExpense(payload)}).catch(function(e){console.error(e);self.interruptImportStep(e)})};self.storeActualExpense=function(payload){self.ctx.executeDataSources({label:'actual_store',body:payload}).then(function(){self.data.import_step=3;self.data.import_message='Success!!';self.getActualExpense(self.data.criteria)}).catch(function(e){self.data.import_message=e.message;self.data.import_step=4})};self.openUploadDialog=function(){self.ctx.self.$refs.file_input.click()};self.dataComputed={cellAmount:function(){var solid=1;return solid+self.data.products.length},disableSearch:function(){return _.reduce(self.data.filter,function(result,value){return result||!(_.isNumber(value)||!_.isEmpty(value))},false)}};self.dataWatch={\"filter.pbu_id\":{handler:function(newVal,oldVal){self.data.sub_pbu_table_distinct=self.data.pbu_table_raw.filter(function(pbu){return(pbu.pbu_id===newVal)});self.data.filter.subpbu_id=(self.data.sub_pbu_table_distinct.length>0)?self.data.sub_pbu_table_distinct[0].subpbu_id:null}},import_step:{handler:function(newVal,oldVal){if(newVal!==4)self.data.progress_step=newVal}}};self.onInit=function(){self.data.init=true;var _ctx=self.ctx;_ctx.getDataSources=_promisify(_ctx.getDataSources.bind(_ctx),function(config){config.params={params:JSON.stringify(config.params||{})};return config});_ctx.executeDataSources=_promisify(_ctx.executeDataSources.bind(_ctx),function(config){config.body=config.body||{};return config});var dd=new Date();ctx.self.filter.time_id=dd.getFullYear()+(''+dd.getMonth()).padStart(2,'0');var foreign_data=JSON.parse(window.foreigndata);Promise.all([_ctx.getDataSources({label:'common_user_role',params:{user_id:foreign_data.usercode}}),_ctx.getDataSources({label:'actual_pbu_list',params:{user_id:foreign_data.usercode}}),_ctx.getDataSources({label:'actual_version_list'})]).then(function(results){var profile=results[0];var pbu_table=results[1];var actual_version_table=results[2];var pbu_table_distinct=_.uniqBy(pbu_table,'pbu_id');self.data.pbu_table_raw=pbu_table;self.data.pbu_table_distinct=pbu_table_distinct;self.data.filter.pbu_id=pbu_table_distinct.length>0?pbu_table_distinct[0].pbu_id:null;self.data.profile=profile;self.data.is_cm_admin=(_.findIndex(profile,{role_name:'CM_Admin'})>=0);self.data.actual_version_table=actual_version_table;self.data.filter.actual_version_id=(actual_version_table.length>0)?actual_version_table[0].version_id:null}).catch(function(err){self.ctx.self.$message({message:'Something wrong.',type:'error'})})};self.onDataUpdated=function(){};self.onResize=function(){};self.onDestroy=function(){};",

    "defaultData": {
      "init": false,
      "profile": null,
      "filter": {
        "time_id": "",
        "pbu_id": null,
        "subpbu_id": null,
        "actual_version_id": null
      },
      "caption": "P&L Input",
      "assets_path": "http://10.124.160.2:806/widget/cm/",
      "is_demo": true,
      "is_hide_sidebar": false,
      "actual_history": null,
      "criteria": null,
      "products": null,
      "history_items": [],
      "pbu_table_raw": [],
      "pbu_table_distinct": [],
      "sub_pbu_table_distinct": [],
      "is_open_group": [],
      "actual_version_table": [],
      "is_show_import": false,
      "import_step": 1,
      "progress_step": 1,
      "import_message": "",
      "is_cm_admin": false
    },

    "defaultSources": [
      {
        "type": "restApi",
        "label": "common_user_role",
        "value": []
      },
      {
        "type": "restApi",
        "label": "actual_pbu_list",
        "value": []
      },
      {
        "type": "restApi",
        "label": "actual_version_list",
        "value": []
      },
      {
        "type": "restApi",
        "label": "actual_application_history",
        "value": []
      },
      {
        "type": "restApi",
        "label": "actual_publish",
        "value": []
      },
      {
        "type": "restApi",
        "label": "actual_store",
        "value": []
      },
      {
        "type": "restApi",
        "label": "actual_recall",
        "value": []
      }
    ]
  }
}