<?xml version="1.0" encoding="UTF-8"?>
<svg width="142px" height="150px" viewBox="0 0 142 150" version="1.1" xmlns="http://www.w3.org/2000/svg" xmlns:xlink="http://www.w3.org/1999/xlink">
    <title>编组 4</title>
    <g id="CM1.0-INPUT" stroke="none" stroke-width="1" fill="none" fill-rule="evenodd">
        <g id="3.1.P&amp;L-Import-1.Select-Files" transform="translate(-889.000000, -425.000000)">
            <g id="编组-38" transform="translate(654.000000, 281.000000)">
                <g id="编组-4" transform="translate(235.000000, 144.000000)">
                    <g id="Image">
                        <path d="M69.3494803,54.4595749 C70.2610372,53.8433112 71.7493235,53.8503155 72.6505197,54.4595749 L142,101.343731 L0,101.343731 L69.3494803,54.4595749 Z" id="Triangle-31" fill="#A7B8D1" transform="translate(71.000000, 77.671865) scale(1, -1) translate(-71.000000, -77.671865) "></path>
                        <path d="M0,52.0020869 C0,49.7917953 1.48729538,46.9878129 3.30450791,45.7510988 L68.6954921,1.24890122 C70.5205214,0.00686737063 73.4620495,0.023434639 75.2823567,1.2976497 L138.717643,45.7023503 C140.530439,46.9713072 142,49.8001978 142,52.0020869 L142,54 L0,54 L0,52.0020869 Z" id="Rectangle-882-Copy" fill="#CFD7E6"></path>
                        <path d="M24.6928105,15.2827657 C24.6928105,18.5964742 27.379102,21.2827657 30.6928105,21.2827657 C34.006519,21.2827657 36.6928105,18.5964742 36.6928105,15.2827657 C36.6928105,15.1881174 36.6906189,15.093981 36.6862838,15.0004044 L45,15 L45,15 C45,18.3137085 47.6862915,21 51,21 C54.3137085,21 57,18.3137085 57,15 L65,15 L65,15 C65,18.3137085 67.6862915,21 71,21 C74.3137085,21 77,18.3137085 77,15 L85.3006443,15.0004044 C85.2963092,15.093981 85.2941176,15.1881174 85.2941176,15.2827657 C85.2941176,18.5964742 87.9804091,21.2827657 91.2941176,21.2827657 C94.6078261,21.2827657 97.2941176,18.5964742 97.2941176,15.2827657 C97.2941176,15.1881174 97.2919261,15.093981 97.287591,15.0004044 L105,15 L105,15 C105,18.3137085 107.686292,21 111,21 C114.313708,21 117,18.3137085 117,15 L126.998823,15 C128.104043,15 129,15.8923205 129,16.9960403 L129,128.00396 C129,129.106342 128.09992,130 126.998823,130 L15.0011767,130 C13.8959573,130 13,129.10768 13,128.00396 L13,16.9960403 C13,15.8936577 13.9000798,15 15.0011767,15 L24.6993371,15.0004044 C24.695002,15.093981 24.6928105,15.1881174 24.6928105,15.2827657 Z" id="Rectangle-1015" fill="#289BE5"></path>
                        <path d="M67.7455061,99.3117904 C69.5862299,100.542964 72.5597291,100.548066 74.4040012,99.3117904 L142,54 L142,146.993871 C142,148.101825 141.111711,149 139.992643,149 L2.00735664,149 C0.898724182,149 0,148.105268 0,146.993871 L0,54 L67.7455061,99.3117904 Z" id="Rectangle-882-Copy-2" fill="#CFD7E6"></path>
                        <path d="M142,54 L142,146.993871 C142,148.101825 141.111711,149 139.992643,149 L2.00735664,149 C0.898724182,149 0.746984042,148.500257 1.66865325,147.883647 L142,54 Z" id="Path-Copy" fill="#EEF1F6"></path>
                    </g>
                    <g id="Group-2" transform="translate(53.000000, 39.000000)" fill="#FFFFFF">
                        <path d="M18,0 C27.9411255,0 36,8.0588745 36,18 C36,27.9411255 27.9411255,36 18,36 C8.0588745,36 0,27.9411255 0,18 C0,8.0588745 8.0588745,0 18,0 Z M19.25,9 L16.75,9 C16.1977153,9 15.75,9.44771525 15.75,10 L15.75,10 L15.749,15.75 L10,15.75 C9.48716416,15.75 9.06449284,16.1360402 9.00672773,16.6333789 L9,16.75 L9,19.25 C9,19.8022847 9.44771525,20.25 10,20.25 L10,20.25 L15.749,20.25 L15.75,26 C15.75,26.5128358 16.1360402,26.9355072 16.6333789,26.9932723 L16.75,27 L19.25,27 C19.8022847,27 20.25,26.5522847 20.25,26 L20.25,26 L20.249,20.25 L26,20.25 C26.5128358,20.25 26.9355072,19.8639598 26.9932723,19.3666211 L27,19.25 L27,16.75 C27,16.1977153 26.5522847,15.75 26,15.75 L26,15.75 L20.249,15.75 L20.25,10 C20.25,9.48716416 19.8639598,9.06449284 19.3666211,9.00672773 L19.25,9 Z" id="Combined-Shape"></path>
                    </g>
                </g>
            </g>
        </g>
    </g>
</svg>